^C:\USERS\ALEKSEI\SOURCE\REPOS\HELLOWORLD\HELLOWORLD.CPP
C:\USERS\ALEKSEI\SOURCE\REPOS\HELLOWORLD\DEBUG\VC142.PDB
C:\USERS\ALEKSEI\SOURCE\REPOS\HELLOWORLD\DEBUG\VC142.IDB
C:\USERS\ALEKSEI\SOURCE\REPOS\HELLOWORLD\DEBUG\HELLOWORLD.OBJ
